1	1540982202736	-1,15	2,134	9,531	Bluefire
2	1540982202975	-0,5	1,69	11,01	Bluefire
3	1540982203151	-2,454	3,628	6,41	Bluefire
4	1540982203326	-0,513	3,039	10,072	Bluefire
5	1540982203563	0,122	3,359	8,984	Bluefire
6	1540982203738	0,273	3,413	9,746	Bluefire
7	1540982203916	0,024	2,876	9,152	Bluefire
8	1540982204149	-0,177	2,738	9,447	Bluefire
9	1540982204326	-0,188	2,881	9,355	Bluefire
10	1540982204504	-0,13	2,691	9,46	Bluefire
11	1540982204739	-0,163	2,639	9,504	Bluefire
12	1540982204915	-0,15	2,663	9,452	Bluefire
13	1540982205092	-0,203	2,566	9,511	Bluefire
14	1540982205328	-0,323	2,522	9,419	Bluefire
15	1540982205503	-0,276	2,513	9,64	Bluefire
16	1540982205679	-0,306	2,508	9,432	Bluefire
17	1540982205916	-0,274	2,546	9,542	Bluefire
18	1540982206091	-0,313	2,501	9,473	Bluefire
19	1540982206268	-0,185	2,741	9,397	Bluefire
20	1540982206503	-0,078	2,76	9,547	Bluefire
21	1540982206680	-0,307	2,678	9,382	Bluefire
22	1540982206852	-0,496	2,567	9,511	Bluefire
23	1540982207092	-0,317	2,956	9,331	Bluefire
24	1540982207269	-0,153	2,961	9,08	Bluefire
25	1540982207444	0,346	2,353	7,863	Bluefire
26	1540982207676	6,052	-0,038	3,182	Bluefire
27	1540982208010	16,212	-1,69	3,894	Bluefire
28	1540982208038	10,026	-1,545	-0,131	Bluefire
29	1540982208306	9,292	-3,634	-0,405	Bluefire
30	1540982208495	8,277	-4,702	0,081	Bluefire
31	1540982208685	9,304	-3,906	-2,002	Bluefire
32	1540982208870	4,91	-7,01	-0,98	Bluefire
33	1540982209057	3,27	-9,876	-0,951	Bluefire
34	1540982209242	4,125	-7,702	-0,111	Bluefire
35	1540982209430	4,342	-10,89	0,053	Bluefire
36	1540982209616	2,489	-9,119	-1,843	Bluefire
37	1540982209804	2,729	-8,468	-2,133	Bluefire
38	1540982210178	1,736	-9,598	-0,154	Bluefire
39	1540982225062	2,578	-10,545	0,158	Bluefire
40	1540982225063	2,315	-9,876	-1,226	Bluefire
41	1540982225064	2,254	-9,126	-0,27	Bluefire
42	1540982225065	6,848	-7,734	-1,761	Bluefire
43	1540982225066	4,171	-7,667	-3,822	Bluefire
44	1540982225067	2,088	-5,925	-2,972	Bluefire
45	1540982225068	0,353	-12,808	0,157	Bluefire
46	1540982225069	3,234	-9,664	-2,656	Bluefire
47	1540982225070	2,505	-9,038	-1,201	Bluefire
48	1540982225071	5,294	-6,382	-2,975	Bluefire
49	1540982225072	6,27	-6,966	-5,312	Bluefire
50	1540982225073	6,268	-3,752	-7,017	Bluefire
51	1540982225074	7,892	-0,267	-6,126	Bluefire
52	1540982225075	6,877	0,428	-7,18	Bluefire
53	1540982225076	7,915	0,574	-6,323	Bluefire
54	1540982225077	6,952	-0,314	-5,529	Bluefire
55	1540982225078	9,74	-0,541	-4,528	Bluefire
56	1540982225079	7,119	-0,92	-5,271	Bluefire
57	1540982225080	9,33	-0,74	-4,986	Bluefire
58	1540982225081	7,688	0,041	-5,473	Bluefire
59	1540982225082	8,488	-0,558	-5,429	Bluefire
60	1540982225083	8,375	0,091	-5,062	Bluefire
61	1540982225084	8,52	0,688	-5,041	Bluefire
62	1540982225085	8,141	0,671	-5,145	Bluefire
63	1540982225086	8,67	0,555	-4,936	Bluefire
64	1540982225087	8,843	0,573	-4,25	Bluefire
65	1540982225088	8,946	0,42	-4,017	Bluefire
66	1540982225089	9,065	0,359	-3,714	Bluefire
67	1540982225090	9,184	0,421	-3,399	Bluefire
68	1540982225091	9,195	0,435	-3,373	Bluefire
69	1540982225092	9,192	0,416	-3,497	Bluefire
70	1540982225093	9,218	0,486	-3,317	Bluefire
71	1540982225094	9,173	0,296	-3,444	Bluefire
72	1540982225095	9,18	0,388	-3,465	Bluefire
73	1540982225096	9,086	0,304	-3,444	Bluefire
74	1540982225097	9,051	0,512	-4,092	Bluefire
75	1540982225098	9,1	-0,748	-3,433	Bluefire
76	1540982225099	8,828	1,484	-4,59	Bluefire
77	1540982225100	8,344	-0,292	-4,538	Bluefire
78	1540982225101	9,404	-0,43	-3,969	Bluefire
79	1540982225102	9,119	-0,088	-4,542	Bluefire
80	1540982225103	8,145	-0,295	-4,329	Bluefire
81	1540982225104	8,904	-0,221	-4,279	Bluefire
82	1540982225105	8,855	-0,29	-4,382	Bluefire
83	1540982225106	8,768	-0,1	-4,379	Bluefire
84	1540982225107	8,624	-0,079	-4,738	Bluefire
85	1540982225108	8,601	-0,008	-4,632	Bluefire
86	1540982225109	8,861	-0,107	-4,422	Bluefire
87	1540982225110	8,691	-0,015	-4,457	Bluefire
88	1540982225111	8,902	0,02	-4,132	Bluefire
89	1540982225112	9,076	0,159	-3,843	Bluefire
90	1540982225113	9,039	0,084	-3,776	Bluefire
91	1540982225114	9,065	0,069	-3,735	Bluefire
92	1540982225115	9,182	0,081	-3,616	Bluefire
93	1540982225116	8,848	-0,293	-3,897	Bluefire
94	1540982225117	9,142	0,649	-4,081	Bluefire
95	1540982225118	8,827	0,517	-3,981	Bluefire
96	1540982225119	9,001	0,686	-3,937	Bluefire
97	1540982225120	8,935	0,337	-3,961	Bluefire
98	1540982225121	8,959	0,479	-3,927	Bluefire
99	1540982225122	8,7	0,423	-3,924	Bluefire
100	1540982225123	9,276	1,057	-4,082	Bluefire
101	1540982225124	8,939	0,61	-3,81	Bluefire
102	1540982225125	9,041	0,615	-3,795	Bluefire
103	1540982225126	9,022	0,54	-3,71	Bluefire
104	1540982225127	9,082	0,588	-3,803	Bluefire
105	1540982225128	9,048	0,46	-3,649	Bluefire
106	1540982225129	9,092	0,423	-3,592	Bluefire
107	1540982225130	9,073	0,623	-3,735	Bluefire
108	1540982225131	9,066	0,769	-3,714	Bluefire
109	1540982225132	9,091	0,769	-3,628	Bluefire
110	1540982225133	9,072	0,801	-3,756	Bluefire
111	1540982225134	9,023	0,708	-3,713	Bluefire
112	1540982225135	9,059	0,69	-3,673	Bluefire
113	1540982225136	9,037	0,634	-3,817	Bluefire
114	1540982225137	9,226	0,5	-3,925	Bluefire
115	1540982225263	8,967	0,689	-3,344	Bluefire
116	1540982225451	9,106	0,778	-3,555	Bluefire
117	1540982225636	9,139	0,757	-3,494	Bluefire
118	1540982225820	9,127	0,786	-3,522	Bluefire
119	1540982226006	9,121	0,774	-3,544	Bluefire
120	1540982226191	9,131	0,765	-3,522	Bluefire
121	1540982226381	9,118	0,726	-3,526	Bluefire
122	1540982226567	9,126	0,727	-3,536	Bluefire
123	1540982226752	9,143	0,713	-3,506	Bluefire
124	1540982226937	9,136	0,706	-3,512	Bluefire
125	1540982227122	9,135	0,688	-3,511	Bluefire
126	1540982227308	9,182	0,61	-3,436	Bluefire
127	1540982227496	9,132	0,614	-3,478	Bluefire
128	1540982227681	9,137	0,643	-3,516	Bluefire
129	1540982227871	9,146	0,66	-3,502	Bluefire
130	1540982228054	9,139	0,664	-3,517	Bluefire
131	1540982228242	9,136	0,661	-3,509	Bluefire
132	1540982228426	9,137	0,674	-3,518	Bluefire
133	1540982228800	9,132	0,67	-3,527	Bluefire
134	1540982228988	9,14	0,676	-3,507	Bluefire
135	1540982283861	9,134	0,678	-3,525	Bluefire
136	1540982283862	9,142	0,683	-3,502	Bluefire
137	1540982283863	9,138	0,682	-3,502	Bluefire
138	1540982283865	9,154	0,695	-3,491	Bluefire
139	1540982283867	9,14	0,696	-3,5	Bluefire
140	1540982283868	9,144	0,711	-3,499	Bluefire
141	1540982283871	9,146	0,699	-3,48	Bluefire
142	1540982283872	9,134	0,714	-3,521	Bluefire
143	1540982283873	9,146	0,698	-3,488	Bluefire
144	1540982283874	9,144	0,698	-3,483	Bluefire
145	1540982283875	9,142	0,706	-3,505	Bluefire
146	1540982283876	9,138	0,704	-3,502	Bluefire
147	1540982283877	9,134	0,699	-3,511	Bluefire
148	1540982283890	9,125	0,707	-3,533	Bluefire
149	1540982283891	9,113	0,732	-3,559	Bluefire
150	1540982283892	9,135	0,734	-3,544	Bluefire
151	1540982283893	9,116	0,73	-3,548	Bluefire
152	1540982283894	9,122	0,734	-3,545	Bluefire
153	1540982283895	9,121	0,735	-3,548	Bluefire
154	1540982283896	9,133	0,733	-3,521	Bluefire
155	1540982283897	9,126	0,73	-3,537	Bluefire
156	1540982283917	9,127	0,73	-3,526	Bluefire
157	1540982283918	9,128	0,733	-3,527	Bluefire
158	1540982283919	9,123	0,75	-3,533	Bluefire
159	1540982283920	9,075	0,732	-3,549	Bluefire
160	1540982283921	9,132	0,821	-3,606	Bluefire
161	1540982283922	9,094	0,75	-3,574	Bluefire
162	1540982283923	9,079	0,717	-3,56	Bluefire
163	1540982283924	9,127	0,765	-3,598	Bluefire
164	1540982283929	9,101	0,738	-3,565	Bluefire
165	1540982283930	9,111	0,739	-3,561	Bluefire
166	1540982283931	9,107	0,747	-3,565	Bluefire
167	1540982283932	9,114	0,733	-3,548	Bluefire
168	1540982283933	9,11	0,732	-3,544	Bluefire
169	1540982283934	9,11	0,744	-3,568	Bluefire
170	1540982283935	9,112	0,731	-3,544	Bluefire
171	1540982283936	9,115	0,725	-3,551	Bluefire
172	1540982283937	9,112	0,722	-3,553	Bluefire
173	1540982283938	9,109	0,724	-3,545	Bluefire
174	1540982283939	9,118	0,741	-3,55	Bluefire
175	1540982283940	9,105	0,743	-3,561	Bluefire
176	1540982283941	9,119	0,745	-3,54	Bluefire
177	1540982283942	9,117	0,745	-3,545	Bluefire
178	1540982283943	9,12	0,745	-3,539	Bluefire
179	1540982283944	9,124	0,724	-3,525	Bluefire
180	1540982283945	9,121	0,711	-3,519	Bluefire
181	1540982283946	9,122	0,717	-3,537	Bluefire
182	1540982283947	9,124	0,694	-3,52	Bluefire
183	1540982283948	9,128	0,709	-3,516	Bluefire
184	1540982283949	9,121	0,719	-3,543	Bluefire
185	1540982283950	9,13	0,703	-3,51	Bluefire
186	1540982283951	9,125	0,731	-3,538	Bluefire
187	1540982283952	9,12	0,715	-3,523	Bluefire
188	1540982283953	9,13	0,726	-3,512	Bluefire
189	1540982283954	9,13	0,712	-3,513	Bluefire
190	1540982283955	9,123	0,716	-3,509	Bluefire
191	1540982283956	9,136	0,73	-3,512	Bluefire
192	1540982283957	9,127	0,728	-3,506	Bluefire
193	1540982283958	9,134	0,734	-3,52	Bluefire
194	1540982283959	9,131	0,721	-3,507	Bluefire
195	1540982283960	9,133	0,73	-3,509	Bluefire
196	1540982283961	9,13	0,735	-3,512	Bluefire
197	1540982283962	9,126	0,736	-3,528	Bluefire
198	1540982283963	9,129	0,739	-3,521	Bluefire
199	1540982283964	9,134	0,736	-3,517	Bluefire
200	1540982283965	9,124	0,756	-3,536	Bluefire
201	1540982283966	9,128	0,721	-3,521	Bluefire
202	1540982283967	9,139	0,713	-3,479	Bluefire
203	1540982283968	9,126	0,673	-3,51	Bluefire
204	1540982283969	9,148	0,697	-3,508	Bluefire
205	1540982283970	9,123	0,715	-3,531	Bluefire
206	1540982283971	9,136	0,725	-3,505	Bluefire
207	1540982283972	9,141	0,724	-3,49	Bluefire
208	1540982283973	9,133	0,733	-3,516	Bluefire
209	1540982283974	9,129	0,745	-3,522	Bluefire
210	1540982283975	9,133	1,169	-3,408	Bluefire
211	1540982283976	9,134	1,19	-3,42	Bluefire
212	1540982283977	9,135	1,468	-3,341	Bluefire
213	1540982283978	9,135	1,582	-3,31	Bluefire
214	1540982283979	9,139	1,509	-3,34	Bluefire
215	1540982283980	9,177	1,354	-3,289	Bluefire
216	1540982283981	9,205	1,27	-3,309	Bluefire
217	1540982283982	9,197	1,136	-3,098	Bluefire
218	1540982283983	9,202	1,15	-3,256	Bluefire
219	1540982283984	9,172	1,222	-3,379	Bluefire
220	1540982283985	9,173	1,214	-3,351	Bluefire
221	1540982283986	9,167	1,273	-3,284	Bluefire
222	1540982283987	9,162	1,161	-3,321	Bluefire
223	1540982283988	9,195	0,996	-3,369	Bluefire
224	1540982283989	9,158	1,031	-3,375	Bluefire
225	1540982283990	9,179	1,065	-3,265	Bluefire
226	1540982283991	9,208	1,024	-3,363	Bluefire
227	1540982283992	9,178	0,68	-3,399	Bluefire
228	1540982283993	9,16	0,589	-3,438	Bluefire
229	1540982283994	9,148	0,601	-3,463	Bluefire
230	1540982283995	9,19	0,538	-3,412	Bluefire
231	1540982283996	9,177	0,589	-3,463	Bluefire
232	1540982283997	9,155	0,589	-3,486	Bluefire
233	1540982283998	9,172	0,537	-3,463	Bluefire
234	1540982283999	9,149	0,579	-3,484	Bluefire
235	1540982284000	9,18	0,58	-3,469	Bluefire
236	1540982284001	9,15	0,54	-3,453	Bluefire
237	1540982284002	9,187	0,563	-3,445	Bluefire
238	1540982284003	9,135	0,632	-3,434	Bluefire
239	1540982284004	9,151	0,598	-3,494	Bluefire
240	1540982284005	9,176	0,593	-3,406	Bluefire
241	1540982284006	9,188	0,587	-3,401	Bluefire
242	1540982284007	9,165	0,561	-3,428	Bluefire
243	1540982284008	9,177	0,585	-3,504	Bluefire
244	1540982284009	9,186	0,448	-3,452	Bluefire
245	1540982284010	9,117	0,348	-3,43	Bluefire
246	1540982284011	9,214	0,351	-3,421	Bluefire
247	1540982284012	9,172	0,391	-3,479	Bluefire
248	1540982284013	9,186	0,435	-3,469	Bluefire
249	1540982284014	9,175	0,527	-3,48	Bluefire
250	1540982284015	9,154	0,535	-3,462	Bluefire
251	1540982284016	9,171	0,55	-3,46	Bluefire
252	1540982284017	9,164	0,536	-3,482	Bluefire
253	1540982284018	9,142	0,472	-3,465	Bluefire
254	1540982284019	9,192	0,477	-3,467	Bluefire
255	1540982284020	9,079	0,503	-3,402	Bluefire
256	1540982284021	9,15	0,399	-3,233	Bluefire
257	1540982284022	9,3	0,262	-3,093	Bluefire
258	1540982284023	9,357	0,182	-3,085	Bluefire
259	1540982284024	9,331	0,13	-3,009	Bluefire
260	1540982284025	9,371	-0,022	-2,925	Bluefire
261	1540982284026	9,299	0,003	-3,097	Bluefire
262	1540982284027	9,339	-0,036	-2,981	Bluefire
263	1540982284028	9,445	-0,009	-2,755	Bluefire
264	1540982284029	9,487	-0,095	-2,726	Bluefire
265	1540982284030	9,439	-0,171	-2,586	Bluefire
266	1540982284031	9,354	-0,135	-2,772	Bluefire
267	1540982284032	9,493	0,183	-2,839	Bluefire
268	1540982284033	9,496	0,043	-2,636	Bluefire
269	1540982284034	9,464	0,029	-2,646	Bluefire
270	1540982284035	9,437	-0,025	-2,704	Bluefire
271	1540982284036	9,442	-0,008	-2,784	Bluefire
272	1540982284037	9,375	0,122	-2,838	Bluefire
273	1540982284038	9,449	0,193	-2,734	Bluefire
274	1540982284039	9,435	0,237	-2,768	Bluefire
275	1540982284040	9,449	0,264	-2,744	Bluefire
276	1540982284041	9,426	0,516	-2,63	Bluefire
277	1540982284042	9,471	0,426	-2,569	Bluefire
278	1540982284043	9,455	0,406	-2,559	Bluefire
279	1540982284044	9,494	0,353	-2,703	Bluefire
280	1540982284045	9,515	0,189	-2,449	Bluefire
281	1540982284046	9,517	0,186	-2,513	Bluefire
282	1540982284047	9,464	0,156	-2,49	Bluefire
283	1540982284048	9,536	0,047	-2,452	Bluefire
284	1540982284049	9,542	0,082	-2,747	Bluefire
285	1540982284050	9,414	0,381	-3,109	Bluefire
286	1540982284051	9,355	0,407	-2,963	Bluefire
287	1540982284052	9,283	0,503	-3,054	Bluefire
288	1540982284053	9,312	0,437	-3,025	Bluefire
289	1540982284054	9,355	0,498	-2,938	Bluefire
290	1540982284055	9,315	0,527	-3,095	Bluefire
291	1540982284056	9,267	0,654	-3,416	Bluefire
292	1540982284057	9,237	0,609	-3,27	Bluefire
293	1540982284058	9,219	0,522	-3,388	Bluefire
294	1540982284059	9,207	0,577	-3,419	Bluefire
295	1540982284060	9,17	0,57	-3,397	Bluefire
296	1540982284061	9,189	0,554	-3,388	Bluefire
297	1540982284062	9,212	0,681	-3,395	Bluefire
298	1540982284063	9,205	0,619	-3,37	Bluefire
299	1540982284064	9,209	0,593	-3,305	Bluefire
300	1540982284065	9,149	0,595	-3,42	Bluefire
301	1540982284066	9,204	0,618	-3,373	Bluefire
302	1540982284067	9,169	0,636	-3,392	Bluefire
303	1540982284068	9,168	0,695	-3,405	Bluefire
304	1540982284069	9,132	0,694	-3,212	Bluefire
305	1540982284070	9,288	0,446	-3,014	Bluefire
306	1540982284071	9,326	0,258	-2,987	Bluefire
307	1540982284072	9,428	0,155	-2,863	Bluefire
308	1540982284073	9,373	0,074	-2,921	Bluefire
309	1540982284074	9,299	-0,002	-3,027	Bluefire
310	1540982284075	9,344	0	-3,002	Bluefire
311	1540982284076	9,359	0,024	-2,806	Bluefire
312	1540982284077	9,452	-0,039	-2,79	Bluefire
313	1540982284078	9,472	-0,216	-2,695	Bluefire
314	1540982284079	9,467	-0,194	-2,772	Bluefire
315	1540982284080	9,434	-0,128	-2,847	Bluefire
316	1540982284081	9,399	0,047	-2,812	Bluefire
317	1540982284082	9,397	0,092	-2,775	Bluefire
318	1540982284083	9,446	0,09	-2,687	Bluefire
319	1540982284084	9,427	0,204	-2,736	Bluefire
320	1540982284085	9,46	0,217	-2,802	Bluefire
321	1540982284086	9,349	0,294	-2,77	Bluefire
322	1540982284087	9,475	0,154	-2,682	Bluefire
323	1540982284088	9,43	0,174	-2,769	Bluefire
324	1540982284089	9,432	0,269	-2,99	Bluefire
325	1540982284090	9,392	0,374	-2,958	Bluefire
326	1540982284091	9,33	0,475	-3,144	Bluefire
327	1540982284092	9,347	0,396	-3,059	Bluefire
328	1540982284093	9,34	0,451	-3,009	Bluefire
329	1540982284094	9,255	0,478	-3,05	Bluefire
330	1540982284095	9,295	0,532	-3,038	Bluefire
331	1540982284096	9,327	0,67	-3,294	Bluefire
332	1540982284097	9,238	0,661	-3,21	Bluefire
333	1540982284098	9,206	0,677	-3,422	Bluefire
334	1540982284099	9,278	0,667	-3,194	Bluefire
335	1540982284100	9,203	0,651	-3,315	Bluefire
336	1540982284101	9,2	0,546	-3,258	Bluefire
337	1540982284102	9,232	0,609	-3,293	Bluefire
338	1540982284103	9,201	0,634	-3,331	Bluefire
339	1540982284104	9,206	0,622	-3,305	Bluefire
340	1540982284105	9,158	0,597	-3,31	Bluefire
341	1540982284106	9,253	0,622	-3,3	Bluefire
342	1540982284107	9,176	0,628	-3,343	Bluefire
343	1540982284108	9,254	0,58	-3,309	Bluefire
344	1540982284109	9,213	0,588	-3,305	Bluefire
345	1540982284110	9,216	0,605	-3,266	Bluefire
346	1540982284111	9,228	0,599	-3,297	Bluefire
347	1540982284112	9,332	0,514	-3,336	Bluefire
348	1540982284113	9,116	0,65	-3,247	Bluefire
349	1540982284114	9,264	0,595	-3,281	Bluefire
350	1540982284115	9,211	0,592	-3,303	Bluefire
351	1540982284116	9,219	0,555	-3,276	Bluefire
352	1540982284117	9,211	0,595	-3,281	Bluefire
353	1540982284118	9,238	0,594	-3,291	Bluefire
354	1540982284119	9,128	0,545	-3,29	Bluefire
355	1540982284120	9,256	0,714	-3,278	Bluefire
356	1540982284121	9,305	0,713	-3,242	Bluefire
357	1540982284122	9,166	0,577	-3,312	Bluefire
358	1540982284123	9,217	0,598	-3,288	Bluefire
359	1540982284124	9,232	0,55	-3,338	Bluefire
360	1540982284125	9,194	0,566	-3,305	Bluefire
361	1540982284126	9,329	0,46	-3,348	Bluefire
362	1540982284127	9,207	0,61	-3,257	Bluefire
363	1540982284128	9,007	0,65	-3,368	Bluefire
364	1540982284129	9,286	0,506	-3,291	Bluefire
365	1540982284130	9,258	0,567	-3,328	Bluefire
366	1540982284131	9,232	0,569	-3,318	Bluefire
367	1540982284132	9,226	0,567	-3,311	Bluefire
368	1540982284133	9,233	0,646	-3,357	Bluefire
369	1540982284134	9,254	0,601	-3,264	Bluefire
370	1540982284135	9,167	0,6	-3,266	Bluefire
371	1540982284136	9,187	0,643	-3,329	Bluefire
372	1540982284137	9,199	0,615	-3,292	Bluefire
373	1540982284138	9,22	0,677	-3,275	Bluefire
374	1540982284139	9,223	0,814	-3,25	Bluefire
375	1540982284140	9,25	0,779	-3,25	Bluefire
376	1540982284141	9,233	0,773	-3,215	Bluefire
377	1540982284142	9,213	0,728	-3,25	Bluefire
378	1540982284143	9,223	0,656	-3,261	Bluefire
379	1540982284144	9,216	0,614	-3,288	Bluefire
380	1540982284145	9,224	0,447	-3,349	Bluefire
381	1540982284146	9,203	-0,127	-3,468	Bluefire
382	1540982284147	9,209	-0,299	-3,515	Bluefire
383	1540982284148	9,208	-0,309	-3,58	Bluefire
384	1540982284149	9,191	-0,289	-3,492	Bluefire
385	1540982284150	9,194	-0,256	-3,536	Bluefire
386	1540982284151	9,188	-0,074	-3,486	Bluefire
387	1540982284152	9,191	0,15	-3,46	Bluefire
388	1540982284153	9,223	0,218	-3,411	Bluefire
389	1540982284154	9,171	0,158	-3,45	Bluefire
390	1540982284155	9,214	0,241	-3,415	Bluefire
391	1540982284156	9,191	0,276	-3,399	Bluefire
392	1540982284157	9,204	0,241	-3,43	Bluefire
393	1540982284158	9,185	0,29	-3,421	Bluefire
394	1540982284159	9,211	0,241	-3,417	Bluefire
395	1540982284160	9,197	0,4	-3,38	Bluefire
396	1540982284161	9,198	0,314	-3,405	Bluefire
397	1540982284162	9,2	0,29	-3,403	Bluefire
398	1540982284163	9,196	0,184	-3,438	Bluefire
399	1540982284164	9,197	0,333	-3,411	Bluefire
400	1540982284165	9,197	0,422	-3,384	Bluefire
401	1540982284166	9,195	0,479	-3,383	Bluefire
402	1540982284167	9,204	0,528	-3,361	Bluefire
403	1540982284168	9,195	0,561	-3,358	Bluefire
404	1540982284169	9,199	0,603	-3,35	Bluefire
405	1540982284170	9,202	0,614	-3,34	Bluefire
406	1540982284171	9,2	0,612	-3,344	Bluefire
407	1540982284172	9,199	0,602	-3,346	Bluefire
408	1540982284173	9,204	0,603	-3,34	Bluefire
409	1540982284174	9,204	0,602	-3,337	Bluefire
410	1540982284175	9,203	0,606	-3,345	Bluefire
411	1540982284176	9,201	0,606	-3,335	Bluefire
412	1540982284177	9,201	0,597	-3,344	Bluefire
413	1540982284178	9,203	0,601	-3,342	Bluefire
414	1540982284179	9,203	0,602	-3,342	Bluefire
415	1540982284180	9,203	0,6	-3,337	Bluefire
416	1540982284181	9,203	0,603	-3,344	Bluefire
417	1540982284322	9,201	0,601	-3,34	Bluefire
418	1540982284693	9,198	0,602	-3,346	Bluefire
419	1540982307764	9,203	0,602	-3,333	Bluefire
420	1540982307765	9,202	0,604	-3,343	Bluefire
421	1540982307766	9,204	0,604	-3,337	Bluefire
422	1540982307767	9,199	0,601	-3,341	Bluefire
423	1540982307768	9,202	0,606	-3,339	Bluefire
424	1540982307769	9,203	0,597	-3,341	Bluefire
425	1540982307771	9,185	2,741	-2,708	Bluefire
426	1540982307772	9,32	8,63	-1,563	Bluefire
427	1540982307773	9,314	8,913	-1,366	Bluefire
428	1540982307774	9,306	8,718	-1,407	Bluefire
429	1540982307775	9,374	8,912	-1,215	Bluefire
430	1540982307776	9,409	8,545	-1,345	Bluefire
431	1540982307777	9,463	8,292	-1,428	Bluefire
432	1540982307778	9,311	7,815	-1,465	Bluefire
433	1540982307779	9,261	7,485	-1,426	Bluefire
434	1540982307780	9,418	7,925	-1,538	Bluefire
435	1540982307781	9,397	7,285	-1,651	Bluefire
436	1540982307782	9,188	6,561	-1,784	Bluefire
437	1540982307783	9,483	5,968	-1,847	Bluefire
438	1540982307784	9,43	6,072	-2,145	Bluefire
439	1540982307785	9,171	5,808	-2,136	Bluefire
440	1540982307786	9,172	5,542	-1,921	Bluefire
441	1540982307787	9,276	5,468	-2,382	Bluefire
442	1540982307788	9,346	4,973	-1,88	Bluefire
443	1540982307789	9,526	4,755	-2,217	Bluefire
444	1540982307790	9,094	4,683	-2,358	Bluefire
445	1540982307801	9,626	4,597	-2,201	Bluefire
446	1540982307802	8,987	4,188	-2,48	Bluefire
447	1540982307803	9,935	4,468	-2,549	Bluefire
448	1540982307804	8,951	3,838	-2,458	Bluefire
449	1540982307805	9,403	1,821	-3,145	Bluefire
450	1540982307806	9,008	0,252	-2,063	Bluefire
451	1540982307807	16,163	-1,197	-5,587	Bluefire
452	1540982307808	19,471	-0,291	-6,079	Bluefire
453	1540982307809	22,73	1,203	-7,245	Bluefire
454	1540982307810	23,965	0,818	-8,308	Bluefire
455	1540982307811	23,257	0,324	-7,745	Bluefire
456	1540982307812	23,699	1,213	-7,954	Bluefire
457	1540982307813	22,107	1,341	-8,508	Bluefire
458	1540982307814	18,381	1,942	-8,359	Bluefire
459	1540982307815	15,697	1,379	-7,195	Bluefire
460	1540982307816	12,732	1,591	-5,353	Bluefire
461	1540982307817	10,287	1,03	-5,771	Bluefire
462	1540982307818	8,626	1,165	-5,926	Bluefire
463	1540982307819	7,19	1,218	-4,898	Bluefire
464	1540982307820	5,114	1,392	-5,052	Bluefire
465	1540982307821	3,838	1,309	-4,867	Bluefire
466	1540982307822	2,955	1,728	-4,899	Bluefire
467	1540982307823	2,225	1,997	-4,317	Bluefire
468	1540982307824	1,596	2,266	-4,158	Bluefire
469	1540982307825	0,955	2,541	-3,971	Bluefire
470	1540982307826	0,42	2,926	-4,035	Bluefire
471	1540982307827	0,638	3,036	-3,855	Bluefire
472	1540982307828	0,404	2,776	-2,875	Bluefire
473	1540982307829	0,492	2,279	-3,546	Bluefire
474	1540982307830	0,856	1,973	-2,701	Bluefire
475	1540982307831	1,35	1,588	-2,169	Bluefire
476	1540982307832	1,956	0,766	-2,299	Bluefire
477	1540982307833	2,104	1,119	-2,365	Bluefire
478	1540982307834	2,441	0,665	-2,844	Bluefire
479	1540982307835	3,555	0,447	-2,946	Bluefire
480	1540982307836	3,936	0,57	-3,783	Bluefire
481	1540982307837	5,148	0,289	-3,738	Bluefire
482	1540982307838	7,346	0,166	-4,434	Bluefire
483	1540982307839	8,93	0,182	-4,138	Bluefire
484	1540982307840	11,148	-0,196	-3,598	Bluefire
485	1540982307841	13,722	-0,089	-4,125	Bluefire
486	1540982307842	15,924	0,242	-5,929	Bluefire
487	1540982307843	18,942	1,061	-7,363	Bluefire
488	1540982307844	21,775	0,394	-7,515	Bluefire
489	1540982307845	23,605	1,14	-8,517	Bluefire
490	1540982307846	24,005	1,973	-9,714	Bluefire
491	1540982307847	21,598	1,818	-9,298	Bluefire
492	1540982307848	21,324	1,536	-6,064	Bluefire
493	1540982307849	19,089	0,196	-5,505	Bluefire
494	1540982307850	19,582	1,181	-5,805	Bluefire
495	1540982307851	20,317	-0,01	-6,159	Bluefire
496	1540982307852	22,274	0,966	-6,985	Bluefire
497	1540982307853	24,507	1,013	-7,284	Bluefire
498	1540982307854	27,102	0,479	-7,938	Bluefire
499	1540982307855	29,622	0,665	-7,933	Bluefire
500	1540982307856	28,772	1,17	-7,58	Bluefire
501	1540982307857	27,084	1,029	-7,296	Bluefire
502	1540982307858	23,824	0,964	-7,535	Bluefire
503	1540982307859	19,891	1,795	-5,372	Bluefire
504	1540982307860	15,65	1,458	-3,766	Bluefire
505	1540982307861	11,445	1,753	-3,056	Bluefire
506	1540982307862	8,08	2,162	-2,702	Bluefire
507	1540982307863	5,144	2,345	-1,414	Bluefire
508	1540982307864	3,24	2,24	-0,641	Bluefire
509	1540982307865	2,149	2,088	-0,23	Bluefire
510	1540982307866	1,874	1,847	-0,069	Bluefire
511	1540982307867	3,138	1,281	-0,231	Bluefire
512	1540982307868	5,086	0,947	-0,837	Bluefire
513	1540982307869	8,173	0,51	-1,214	Bluefire
514	1540982307870	12,336	-0,287	-2,399	Bluefire
515	1540982307871	16,299	0,206	-3,326	Bluefire
516	1540982307872	20,043	0,531	-5,566	Bluefire
517	1540982307873	24,268	-0,408	-6,047	Bluefire
518	1540982307874	28,375	1,662	-9,845	Bluefire
519	1540982307875	31,238	1,041	-10,048	Bluefire
520	1540982307876	30,817	2,287	-10,835	Bluefire
521	1540982307877	32,596	1,57	-10,504	Bluefire
522	1540982307878	32,836	1,363	-10,865	Bluefire
523	1540982307879	33,815	2,077	-12,572	Bluefire
524	1540982307880	31,08	1,951	-9,23	Bluefire
525	1540982307881	23,964	2,039	-8,284	Bluefire
526	1540982307882	14,907	2,969	-7,516	Bluefire
527	1540982307883	4,583	1,44	-6,644	Bluefire
528	1540982307884	5,095	-0,121	-6,431	Bluefire
529	1540982307885	10,365	-0,459	-3,663	Bluefire
530	1540982307886	14,483	0,199	-2,519	Bluefire
531	1540982307887	14,805	1,259	-2,508	Bluefire
532	1540982307888	12,41	0,708	-0,453	Bluefire
533	1540982307889	13,117	1,168	-2,181	Bluefire
534	1540982307890	17,284	-0,334	-3,707	Bluefire
535	1540982307891	28,119	0,353	-8,766	Bluefire
536	1540982307892	34,756	1,202	-11,693	Bluefire
537	1540982307893	36,912	1,978	-10,053	Bluefire
538	1540982308045	33,044	1,974	-7,363	Bluefire
539	1540982308280	30,027	1,653	-5,63	Bluefire
540	1540982308457	25,819	0,068	-4,972	Bluefire
541	1540982308624	21,935	1,446	-3,535	Bluefire
542	1540982308858	15,495	1,595	-4,456	Bluefire
543	1540982309035	10,277	3,159	-5,572	Bluefire
544	1540982309212	2,842	2,94	-5,392	Bluefire
545	1540982309448	-0,797	3,326	-5,232	Bluefire
546	1540982309625	-1,993	3,355	-5,014	Bluefire
547	1540982309800	-2,501	3,263	-5,173	Bluefire
548	1540982310045	-1,967	2,485	-5,628	Bluefire
549	1540982310215	-1,233	1,684	-5,492	Bluefire
550	1540982310397	2,847	-1,825	-4,376	Bluefire
551	1540982310625	6,984	-4,959	-4,422	Bluefire
552	1540982310802	9,418	-3,815	-2,723	Bluefire
553	1540982310980	9,159	-3,828	-3,869	Bluefire
554	1540982311215	9,672	-0,825	-2,768	Bluefire
555	1540982311402	9,415	0,088	-2,584	Bluefire
556	1540982311568	9,532	0,217	-2,42	Bluefire
557	1540982311803	9,442	0,156	-2,414	Bluefire
558	1540982311983	9,373	0,158	-2,606	Bluefire
559	1540982312158	9,462	0,109	-2,47	Bluefire
560	1540982312394	9,524	0,085	-2,415	Bluefire
561	1540982312571	9,412	0,202	-2,545	Bluefire
562	1540982312745	9,612	0,495	-2,627	Bluefire
563	1540982312980	9,822	0,781	-2,418	Bluefire
564	1540982313161	8,02	1,847	-1,516	Bluefire
565	1540982313338	6,827	2,526	-1,791	Bluefire
566	1540982313573	4,432	2,257	-2,16	Bluefire
567	1540982313745	1,77	2,294	-2,614	Bluefire
568	1540982313925	-1,733	2,181	-3,28	Bluefire
569	1540982314166	-3,14	0,534	-2,617	Bluefire
570	1540982314341	-2,566	0,284	-3,296	Bluefire
571	1540982314522	-0,787	-0,075	-4,991	Bluefire
572	1540982314750	4,183	-1,433	-6,404	Bluefire
573	1540982314931	10,279	-1,42	-5,927	Bluefire
574	1540982315104	17,187	-0,85	-6,397	Bluefire
575	1540982315343	19,927	-0,627	-5,793	Bluefire
576	1540982315521	22,443	0,033	-4,687	Bluefire
577	1540982315694	22,122	-0,16	-2,853	Bluefire
578	1540982315922	22,364	0,291	-3,962	Bluefire
579	1540982316106	24,785	-0,835	-4,193	Bluefire
580	1540982316283	29,211	-1,355	-7,173	Bluefire
581	1540982316516	30,212	1,175	-9,124	Bluefire
582	1540982316693	27,474	1,672	-7,197	Bluefire
583	1540982316872	21,261	1,277	-4,616	Bluefire
584	1540982317103	15,584	0,806	-3,066	Bluefire
585	1540982317283	10,587	1,539	-2,102	Bluefire
586	1540982317457	6,005	0,826	-2,652	Bluefire
587	1540982317696	3,413	0,615	-1,643	Bluefire
588	1540982317868	1,757	0,473	-0,916	Bluefire
589	1540982318046	0,967	-0,239	-0,121	Bluefire
590	1540982318280	2,862	-0,447	0,323	Bluefire
591	1540982318461	2,051	1,981	0,384	Bluefire
592	1540982318629	0,319	1,909	0,555	Bluefire
593	1540982318865	0,82	0,788	2,676	Bluefire
594	1540982319042	2,291	1,053	0,465	Bluefire
595	1540982319352	6,22	-0,747	-0,609	Bluefire
596	1540982319539	13,225	-1,024	-3,467	Bluefire
597	1540982319728	18,311	0,408	-8,079	Bluefire
598	1540982319913	24,358	-0,496	-9,176	Bluefire
599	1540982320103	28,915	0,212	-9,686	Bluefire
600	1540982320290	32,324	0,826	-9,178	Bluefire
601	1540982320477	31,774	0,823	-8,271	Bluefire
602	1540982320661	27,682	1,646	-7,513	Bluefire
603	1540982320847	26,639	1,668	-6,241	Bluefire
604	1540982321033	25,563	0,358	-6,654	Bluefire
605	1540982321220	28,039	0,387	-5,189	Bluefire
606	1540982321408	28,84	0,712	-5,826	Bluefire
607	1540982326877	30,044	-0,209	-5,036	Bluefire
608	1540982326879	28,992	0,564	-4,225	Bluefire
609	1540982326881	24,081	1,373	-4,488	Bluefire
610	1540982326882	18,709	1,276	-3,336	Bluefire
611	1540982326883	14,009	0,642	-1,249	Bluefire
612	1540982326884	10,46	0,362	-0,556	Bluefire
613	1540982326885	8,391	0,515	-0,748	Bluefire
614	1540982326886	6,405	0,586	-0,429	Bluefire
615	1540982326887	4,639	0,441	0,272	Bluefire
616	1540982326888	1,295	0,527	0,901	Bluefire
617	1540982326889	-0,58	0,143	-0,179	Bluefire
618	1540982326890	-1,214	-0,658	-1,517	Bluefire
619	1540982326891	-0,95	0,017	-2,905	Bluefire
620	1540982326892	-1,323	1,334	-3,145	Bluefire
621	1540982326893	-1,474	1,606	-3,53	Bluefire
622	1540982326894	-0,005	1,551	-6,263	Bluefire
623	1540982326895	2,807	0,91	-3,971	Bluefire
624	1540982326896	7,189	-0,405	-3,302	Bluefire
625	1540982326897	12,216	-0,489	-2,932	Bluefire
626	1540982326898	15,981	-0,732	-3,235	Bluefire
627	1540982326899	19,7	-0,436	-4,953	Bluefire
628	1540982326900	21,255	0,847	-8,686	Bluefire
629	1540982326901	22,986	1,394	-11,227	Bluefire
630	1540982326902	24,769	0,19	-12,072	Bluefire
631	1540982326903	29,816	-0,734	-8,524	Bluefire
632	1540982326904	30,987	0,011	-3,76	Bluefire
633	1540982326905	27,288	0,38	-3,434	Bluefire
634	1540982337122	20,454	1,717	-1,34	Bluefire
635	1540982337123	14,196	1,398	-2,394	Bluefire
636	1540982337133	9,794	2,092	-2,543	Bluefire
637	1540982337135	6,114	2,561	-2,735	Bluefire
638	1540982337136	4,131	3,087	-3,373	Bluefire
639	1540982337137	2,506	2,81	-1,812	Bluefire
640	1540982337141	1,77	2,257	-0,624	Bluefire
641	1540982337142	1,146	2,049	-0,252	Bluefire
642	1540982337143	0,985	1,03	-0,216	Bluefire
643	1540982337144	0,821	0,925	0,247	Bluefire
644	1540982337145	0,843	0,48	-0,363	Bluefire
645	1540982337146	0,933	0,02	-0,863	Bluefire
646	1540982337147	3,066	-1,113	-1,259	Bluefire
647	1540982337158	7,352	-1,468	-2,481	Bluefire
648	1540982337159	12,249	-1,624	-2,594	Bluefire
649	1540982337160	15,913	-1,184	-2,384	Bluefire
650	1540982337161	20,626	-2,176	-3,193	Bluefire
651	1540982337162	22,707	-0,256	-4,516	Bluefire
652	1540982337163	25,529	-0,852	-5,589	Bluefire
653	1540982337164	25,43	0,336	-6,087	Bluefire
654	1540982337165	25,842	0,047	-7,238	Bluefire
655	1540982337166	22,443	1,839	-6,828	Bluefire
656	1540982337167	19,562	1,06	-5,692	Bluefire
657	1540982337168	16,595	1,704	-4,668	Bluefire
658	1540982337169	13,784	1,616	-4,089	Bluefire
659	1540982337225	12,298	1,298	-4,219	Bluefire
660	1540982337226	12,016	1,196	-4,351	Bluefire
661	1540982337227	11,885	1,542	-4,082	Bluefire
662	1540982337228	11,944	1,027	-4,088	Bluefire
663	1540982337229	12,408	0,868	-3,871	Bluefire
664	1540982337230	12,992	0,951	-4,538	Bluefire
665	1540982337231	13,155	1,264	-3,741	Bluefire
666	1540982337232	12,75	1,107	-4,723	Bluefire
667	1540982337233	12,898	1,029	-5,151	Bluefire
668	1540982337234	12,946	1,043	-4,44	Bluefire
669	1540982337235	12,748	0,968	-3,731	Bluefire
670	1540982337236	11,963	0,727	-3,285	Bluefire
671	1540982337237	12,038	0,467	-4,711	Bluefire
672	1540982337238	13,672	0,318	-5,551	Bluefire
673	1540982337239	13,91	1,027	-6,637	Bluefire
674	1540982337240	14,35	0,2	-6,092	Bluefire
675	1540982337241	14,933	-0,505	-5,411	Bluefire
676	1540982337242	14,275	-0,618	0,181	Bluefire
677	1540982337243	10,416	-0,895	3,809	Bluefire
678	1540982337244	4,713	-0,327	6,096	Bluefire
679	1540982337245	-2,788	0,181	3,955	Bluefire
680	1540982337246	-6,546	-0,928	0,715	Bluefire
681	1540982337247	-9,413	0,122	-1,121	Bluefire
682	1540982337248	-9,761	1,273	-4,834	Bluefire
683	1540982337249	-8,907	1,487	-7,501	Bluefire
684	1540982337250	-3,547	1,364	-12,28	Bluefire
685	1540982337251	2,875	-0,385	-12,918	Bluefire
686	1540982337441	8,641	1,067	-10,699	Bluefire
687	1540982337442	9,995	1,787	-7,831	Bluefire
688	1540982337616	9,526	1,197	-5,02	Bluefire
689	1540982337801	9,087	1,131	-3,273	Bluefire
690	1540982337988	8,606	1,192	-4,565	Bluefire
691	1540982338173	9,973	0,404	-4,36	Bluefire
692	1540982338362	12,758	-0,288	-3,592	Bluefire
693	1540982338550	15,86	-0,054	-0,982	Bluefire
694	1540982338735	18,193	-1,298	-0,303	Bluefire
695	1540982338920	21,894	-1,023	-0,265	Bluefire
696	1540982339106	23,983	0,318	-1,674	Bluefire
697	1540982339515	24,699	-0,112	-2,841	Bluefire
698	1540982339516	23,636	1,274	-2,497	Bluefire
699	1540982339663	20,917	1,492	-2,813	Bluefire
700	1540982339849	17,431	1,94	-2,801	Bluefire
701	1540982340041	14,707	0,641	-1,383	Bluefire
702	1540982340388	13,148	0,402	0,141	Bluefire
703	1540982340408	11,361	0,449	1,343	Bluefire
704	1540982340595	9,239	0,921	0,955	Bluefire
705	1540982340968	7,415	1,268	-0,138	Bluefire
706	1540982341153	5,047	1,425	-1,701	Bluefire
707	1540982341339	6,108	0,193	-2,986	Bluefire
708	1540982341526	9,195	-0,753	-5,563	Bluefire
709	1540982341715	9,458	-2,828	-3,187	Bluefire
710	1540982373397	9,855	-3,867	-3,311	Bluefire
711	1540982373398	9,431	-6,415	-3,375	Bluefire
712	1540982373399	9,481	-6,953	-3,988	Bluefire
713	1540982373401	9,485	-7,532	-4,043	Bluefire
714	1540982373402	9,672	-7,39	-3,945	Bluefire
715	1540982373403	9,528	-5,694	-3,606	Bluefire
716	1540982373404	9,609	-4,455	-3,118	Bluefire
717	1540982373405	9,677	-3,419	-2,847	Bluefire
718	1540982373406	9,57	-3,348	-2,855	Bluefire
719	1540982373431	9,669	-2,731	-2,669	Bluefire
720	1540982373432	9,676	-2,043	-2,473	Bluefire
721	1540982373433	9,598	-1,722	-2,388	Bluefire
722	1540982373434	9,658	-1,259	-2,277	Bluefire
723	1540982373435	9,613	-0,809	-2,125	Bluefire
724	1540982373436	9,591	-0,551	-2,114	Bluefire
725	1540982373442	9,633	-0,375	-2,016	Bluefire
726	1540982373443	9,64	-0,074	-1,896	Bluefire
727	1540982373444	9,622	0,238	-1,882	Bluefire
728	1540982373445	9,57	0,268	-1,825	Bluefire
729	1540982373446	9,623	0,185	-1,886	Bluefire
730	1540982373447	9,647	0,177	-1,874	Bluefire
731	1540982373448	9,606	0,125	-1,885	Bluefire
732	1540982373449	9,542	0,189	-1,873	Bluefire
733	1540982373450	9,632	0,454	-1,856	Bluefire
734	1540982373451	9,637	0,319	-1,917	Bluefire
735	1540982373452	9,608	0,135	-1,868	Bluefire
736	1540982373453	9,635	0,109	-1,896	Bluefire
737	1540982373454	9,655	0,04	-1,85	Bluefire
738	1540982373455	9,612	0,207	-1,767	Bluefire
739	1540982373456	9,585	0,222	-1,732	Bluefire
740	1540982373457	9,659	-0,046	-1,831	Bluefire
741	1540982373458	9,628	-0,047	-1,84	Bluefire
742	1540982373459	9,581	-0,009	-1,897	Bluefire
743	1540982373460	9,669	-0,193	-1,928	Bluefire
744	1540982373461	9,616	-0,185	-1,971	Bluefire
745	1540982373462	9,58	-0,234	-1,964	Bluefire
746	1540982373463	9,647	-0,248	-1,991	Bluefire
747	1540982373464	9,626	-0,578	-2,106	Bluefire
748	1540982373905	9,634	-1,039	-2,251	Bluefire
749	1540982373906	9,619	-0,55	-2,118	Bluefire
750	1540982373907	9,617	-0,269	-2,023	Bluefire
751	1540982373909	9,648	-0,215	-2,001	Bluefire
752	1540982373910	9,559	-0,072	-1,991	Bluefire
753	1540982373911	9,643	-0,424	-2,077	Bluefire
754	1540982373912	9,652	0,04	-1,939	Bluefire
755	1540982373913	9,599	0,018	-1,894	Bluefire
756	1540982373914	9,622	-0,024	-1,92	Bluefire
757	1540982373915	9,627	-0,052	-1,914	Bluefire
758	1540982373916	9,621	0,152	-1,882	Bluefire
759	1540982373917	9,63	0,319	-1,841	Bluefire
760	1540982373918	9,616	0,1	-1,839	Bluefire
761	1540982373919	9,605	-0,102	-1,898	Bluefire
762	1540982373920	9,628	-0,148	-1,91	Bluefire
763	1540982373921	9,612	-0,261	-1,907	Bluefire
764	1540982373922	9,628	-0,377	-1,944	Bluefire
765	1540982373923	9,64	-0,361	-1,97	Bluefire
766	1540982373924	9,643	-0,565	-2	Bluefire
767	1540982373925	9,632	-0,593	-2,018	Bluefire
768	1540982373926	9,633	-0,355	-1,991	Bluefire
769	1540982373927	9,626	-0,095	-1,882	Bluefire
770	1540982373928	9,704	0,003	-1,889	Bluefire
771	1540982373929	9,631	0,181	-1,898	Bluefire
772	1540982373930	9,662	0,485	-1,953	Bluefire
773	1540982373931	9,513	0,542	-2,064	Bluefire
774	1540982373932	9,589	0,553	-2,138	Bluefire
775	1540982373933	9,554	0,646	-2,038	Bluefire
776	1540982373934	9,552	0,654	-2,115	Bluefire
777	1540982373935	9,692	0,618	-2,322	Bluefire
778	1540982373936	9,687	0,563	-2,239	Bluefire
779	1540982373937	9,79	0,538	-2,053	Bluefire
780	1540982373938	9,437	0,536	-1,956	Bluefire
781	1540982373939	9,419	0,818	-1,914	Bluefire
782	1540982373940	9,722	0,535	-1,995	Bluefire
783	1540982373941	9,759	0,688	-2,015	Bluefire
784	1540982373942	9,596	0,667	-1,964	Bluefire
785	1540982373943	9,659	0,632	-1,838	Bluefire
786	1540982373944	9,62	0,662	-1,877	Bluefire
787	1540982373945	9,564	0,793	-1,808	Bluefire
788	1540982373946	9,622	0,616	-1,725	Bluefire
789	1540982373947	9,636	0,693	-1,679	Bluefire
790	1540982373948	9,642	0,657	-1,791	Bluefire
791	1540982373949	9,677	0,648	-1,748	Bluefire
792	1540982373950	9,591	0,686	-1,716	Bluefire
793	1540982373951	9,683	0,668	-1,761	Bluefire
794	1540982373952	9,579	0,717	-1,698	Bluefire
795	1540982373953	9,63	0,688	-1,759	Bluefire
796	1540982373954	9,617	0,686	-1,741	Bluefire
797	1540982373955	9,603	0,698	-1,779	Bluefire
798	1540982373956	9,698	0,603	-1,792	Bluefire
799	1540982373957	9,523	0,747	-1,703	Bluefire
800	1540982373958	9,653	0,702	-1,795	Bluefire
801	1540982373959	9,642	0,664	-1,742	Bluefire
802	1540982373960	9,617	0,703	-1,815	Bluefire
803	1540982373961	9,609	0,66	-1,773	Bluefire
804	1540982373962	9,696	0,711	-1,794	Bluefire
805	1540982373963	9,537	0,687	-1,86	Bluefire
806	1540982373964	9,598	0,707	-1,799	Bluefire
807	1540982373965	9,641	0,695	-1,776	Bluefire
808	1540982373966	9,629	0,675	-1,792	Bluefire
809	1540982373967	9,615	0,632	-1,733	Bluefire
810	1540982373968	9,632	0,643	-1,757	Bluefire
811	1540982373969	9,636	0,678	-1,754	Bluefire
812	1540982373970	9,569	0,647	-1,8	Bluefire
813	1540982373971	9,685	0,651	-1,741	Bluefire
814	1540982373972	9,622	0,684	-1,739	Bluefire
815	1540982373973	9,588	0,697	-1,782	Bluefire
816	1540982373974	9,622	0,67	-1,727	Bluefire
817	1540982373975	9,519	0,72	-1,78	Bluefire
818	1540982373976	9,784	0,569	-1,794	Bluefire
819	1540982373977	9,605	0,769	-1,787	Bluefire
820	1540982373978	9,6	0,722	-1,714	Bluefire
821	1540982373979	9,617	0,708	-1,745	Bluefire
822	1540982373980	9,612	0,649	-1,693	Bluefire
823	1540982373981	9,718	0,633	-1,689	Bluefire
824	1540982373982	9,531	0,631	-1,685	Bluefire
825	1540982373983	9,687	0,216	-2,074	Bluefire
826	1540982373984	9,602	-0,143	-1,943	Bluefire
827	1540982373985	9,663	-0,097	-2	Bluefire
828	1540982373986	9,636	-0,277	-2,002	Bluefire
829	1540982373987	9,65	-0,133	-1,962	Bluefire
830	1540982373988	9,657	-0,105	-1,993	Bluefire
831	1540982373989	9,612	-0,053	-1,981	Bluefire
832	1540982373990	9,58	-0,059	-1,951	Bluefire
833	1540982373991	9,674	-0,007	-1,981	Bluefire
834	1540982373992	9,636	-0,069	-1,96	Bluefire
835	1540982373993	9,63	-0,014	-1,97	Bluefire
836	1540982373994	9,642	-0,014	-1,978	Bluefire
837	1540982373995	9,644	-0,081	-1,946	Bluefire
838	1540982373996	9,62	0,228	-1,886	Bluefire
839	1540982373997	9,628	0,502	-1,812	Bluefire
840	1540982373998	9,622	0,343	-1,883	Bluefire
841	1540982373999	9,647	0,497	-1,811	Bluefire
842	1540982374000	9,62	0,72	-1,777	Bluefire
843	1540982374001	9,622	0,754	-1,787	Bluefire
844	1540982374002	9,632	0,617	-1,758	Bluefire
845	1540982374003	9,629	0,655	-1,776	Bluefire
846	1540982374004	9,627	0,667	-1,782	Bluefire
847	1540982374005	9,632	0,681	-1,741	Bluefire
848	1540982374006	9,648	0,71	-1,693	Bluefire
849	1540982374007	9,627	0,698	-1,705	Bluefire
850	1540982374008	9,666	0,739	-1,714	Bluefire
851	1540982374009	9,599	0,721	-1,706	Bluefire
852	1540982374010	9,644	0,835	-1,602	Bluefire
853	1540982374011	9,705	0,909	-1,074	Bluefire
854	1540982374012	9,779	1,03	-0,239	Bluefire
855	1540982374013	9,86	0,757	-0,501	Bluefire
856	1540982374014	10,516	0,264	-1,51	Bluefire
857	1540982374015	9,263	-3,197	-2,557	Bluefire
858	1540982374016	8,537	-4,336	-1,757	Bluefire
859	1540982374017	6,307	-8,551	-3,722	Bluefire
860	1540982374018	3,636	-4,968	-2,621	Bluefire
861	1540982374019	4,724	-8,362	-4,601	Bluefire
862	1540982374020	3,083	-11,137	-0,283	Bluefire
863	1540982374021	2,908	-8,493	-3,337	Bluefire
864	1540982374022	5,252	-8,7	-2,976	Bluefire
865	1540982374023	3,059	-3,597	-5,945	Bluefire
866	1540982374024	3,347	-10,865	-4,559	Bluefire
867	1540982374025	5,885	-8,724	-0,86	Bluefire
868	1540982374026	3,091	-7,614	-0,218	Bluefire
869	1540982374027	0,355	-9,439	1,722	Bluefire
870	1540982374028	2,497	-11,555	-0,837	Bluefire
871	1540982374029	-2,242	-11,798	1,356	Bluefire
872	1540982374030	-2,861	-10,541	-1,018	Bluefire
873	1540982374031	3,972	-11,189	1,455	Bluefire
874	1540982374032	-4,105	-2,86	8,132	Bluefire
875	1540982374559	4,25	1,691	6,661	Bluefire
876	1540982374560	-0,499	5,245	8,843	Bluefire
877	1540982374981	-1,422	1,94	9,047	Bluefire
878	1540982374982	-1,871	2,869	9,701	Bluefire
879	1540982375062	-2,231	3,681	11,826	Bluefire
880	1540982375135	-0,969	1,293	7,132	Bluefire
881	1540982375312	-0,056	3,099	9,829	Bluefire
882	1540982375547	0,78	2,504	10,272	Bluefire
883	1540982375725	-0,286	2,608	8,305	Bluefire
884	1540982375906	-0,441	1,509	11,085	Bluefire
885	1540982376135	-1,178	0,128	9,705	Bluefire
